[
  {
    "name": "v",
    "tag_name": "v",
    "created_at": "2024-02-26",
    "assets_links_name": null,
    "assets_links_direct_url": null
  },
  {
    "name": "v0.1.0",
    "tag_name": "v0.1.0",
    "created_at": "2024-03-03",
    "assets_links_name": null,
    "assets_links_direct_url": null
  },
  {
    "name": "Release 20240309.0.258",
    "tag_name": "v20240309.0.258",
    "created_at": "2024-03-09",
    "assets_links_name": "20240309.0.258.tar",
    "assets_links_direct_url": "https://gitlab.com/api/v4/projects/54498294/packages/generic/rootfs/20240309.0.258/20240309.0.258.tar"
  },
  {
    "name": "Release 20240310.0.275",
    "tag_name": "v20240310.0.275",
    "created_at": "2024-03-10",
    "assets_links_name": "20240310.0.275.tar",
    "assets_links_direct_url": "https://gitlab.com/api/v4/projects/54498294/packages/generic/rootfs/20240310.0.275/20240310.0.275.tar"
  },
  {
    "name": "Release 2024.03.10+be7e2ba2",
    "tag_name": "v2024.03.10+ci_iid_299",
    "created_at": "2024-03-10",
    "assets_links_name": "2024.03.10+be7e2ba2.tar",
    "assets_links_direct_url": "https://gitlab.com/api/v4/projects/54498294/packages/generic/rootfs/2024.03.10+be7e2ba2/2024.03.10+be7e2ba2.tar"
  },
  {
    "name": "Release 2024.03.11+13ab27ab",
    "tag_name": "v2024.03.11+ci_iid_304",
    "created_at": "2024-03-11",
    "assets_links_name": "2024.03.11+13ab27ab.tar",
    "assets_links_direct_url": "https://gitlab.com/api/v4/projects/54498294/packages/generic/rootfs/2024.03.11+13ab27ab/2024.03.11+13ab27ab.tar"
  },
  {
    "name": "Release 2024.03.16+ce5a5bc4",
    "tag_name": "v2024.03.16-rc+ci_iid_362",
    "created_at": "2024-03-16",
    "assets_links_name": "2024.03.16+ce5a5bc4.tar",
    "assets_links_direct_url": "https://gitlab.com/api/v4/projects/54498294/packages/generic/rootfs/2024.03.16+ce5a5bc4/2024.03.16+ce5a5bc4.tar"
  },
  {
    "name": "Release 2024.03.16+4af11805",
    "tag_name": "v2024.03.16-rc+ci_iid_374",
    "created_at": "2024-03-16",
    "assets_links_name": "2024.03.16+4af11805.tar",
    "assets_links_direct_url": "https://gitlab.com/api/v4/projects/54498294/packages/generic/rootfs/2024.03.16+4af11805/2024.03.16+4af11805.tar"
  },
  {
    "name": "Release 2024.03.16+80c62963",
    "tag_name": "v2024.03.16-rc+ci_iid_377",
    "created_at": "2024-03-16",
    "assets_links_name": "2024.03.16+80c62963.tar",
    "assets_links_direct_url": "https://gitlab.com/api/v4/projects/54498294/packages/generic/rootfs/2024.03.16+80c62963/2024.03.16+80c62963.tar"
  },
  {
    "name": "Release 2024.03.17+aaf4c701",
    "tag_name": "v2024.03.17-rc+ci_iid_380",
    "created_at": "2024-03-17",
    "assets_links_name": "2024.03.17+aaf4c701.tar",
    "assets_links_direct_url": "https://gitlab.com/api/v4/projects/54498294/packages/generic/rootfs/2024.03.17+aaf4c701/2024.03.17+aaf4c701.tar"
  },
  {
    "name": "Release 2024.03.17+f677304c",
    "tag_name": "v2024.03.17-rc+ci_iid_384",
    "created_at": "2024-03-17",
    "assets_links_name": "2024.03.17+f677304c.tar",
    "assets_links_direct_url": "https://gitlab.com/api/v4/projects/54498294/packages/generic/rootfs/2024.03.17+f677304c/2024.03.17+f677304c.tar"
  },
  {
    "name": "Release 2024.03.17+c12a9697",
    "tag_name": "v2024.03.17-rc+ci_iid_388",
    "created_at": "2024-03-17",
    "assets_links_name": "2024.03.17+c12a9697.tar",
    "assets_links_direct_url": "https://gitlab.com/api/v4/projects/54498294/packages/generic/rootfs/2024.03.17+c12a9697/2024.03.17+c12a9697.tar"
  },
  {
    "name": "Release 0.11.7",
    "tag_name": "v0.11.7",
    "created_at": "2024-03-17",
    "assets_links_name": "0.11.7.tar",
    "assets_links_direct_url": "https://gitlab.com/api/v4/projects/54498294/packages/generic/rootfs/0.11.7/0.11.7.tar"
  },
  {
    "name": "Release 2024.03.17+6f091171",
    "tag_name": "v2024.03.17-rc+ci_iid_392",
    "created_at": "2024-03-17",
    "assets_links_name": "2024.03.17+6f091171.tar",
    "assets_links_direct_url": "https://gitlab.com/api/v4/projects/54498294/packages/generic/rootfs/2024.03.17+6f091171/2024.03.17+6f091171.tar"
  },
  {
    "name": "Release 2024.03.18+ed102845",
    "tag_name": "v2024.03.18-rc+ci_iid_395",
    "created_at": "2024-03-18",
    "assets_links_name": "2024.03.18+ed102845.tar",
    "assets_links_direct_url": "https://gitlab.com/api/v4/projects/54498294/packages/generic/rootfs/2024.03.18+ed102845/2024.03.18+ed102845.tar"
  },
  {
    "name": "Release 0.11.8",
    "tag_name": "v0.11.8",
    "created_at": "2024-03-18",
    "assets_links_name": "0.11.8.tar",
    "assets_links_direct_url": "https://gitlab.com/api/v4/projects/54498294/packages/generic/rootfs/0.11.8/0.11.8.tar"
  },
  {
    "name": "Release 2024.03.29+3249caa1",
    "tag_name": "dev2024.03.29-rc+ci_iid_418",
    "created_at": "2024-03-29",
    "assets_links_name": "2024.03.29+3249caa1.tar",
    "assets_links_direct_url": "https://gitlab.com/api/v4/projects/54498294/packages/generic/rootfs/2024.03.29+3249caa1/2024.03.29+3249caa1.tar"
  },
  {
    "name": "Release 2024.03.30+036fe2b5",
    "tag_name": "dev2024.03.30-rc+ci_iid_425",
    "created_at": "2024-03-30",
    "assets_links_name": "2024.03.30+036fe2b5.tar",
    "assets_links_direct_url": "https://gitlab.com/api/v4/projects/54498294/packages/generic/rootfs/2024.03.30+036fe2b5/2024.03.30+036fe2b5.tar"
  },
  {
    "name": "Release 2024.03.30+a08a4b81",
    "tag_name": "dev2024.03.30-rc+ci_iid_432",
    "created_at": "2024-03-30",
    "assets_links_name": "2024.03.30+a08a4b81.tar",
    "assets_links_direct_url": "https://gitlab.com/api/v4/projects/54498294/packages/generic/rootfs/2024.03.30+a08a4b81/2024.03.30+a08a4b81.tar"
  },
  {
    "name": "Release 0.11.10",
    "tag_name": "v0.11.10",
    "created_at": "2024-03-30",
    "assets_links_name": "0.11.10.tar",
    "assets_links_direct_url": "https://gitlab.com/api/v4/projects/54498294/packages/generic/rootfs/0.11.10/0.11.10.tar"
  }
]
